Simple Linear Regression Part 2
…
library(tidyverse)

starwars_nojabba <- starwars %>%
  drop_na(mass, height) %>%
  filter(mass < 1000)

Simple linear regression

mod <- lm(mass ~ height, data = starwars_nojabba)

starwars_nojabba %>%
  mutate(y_hat = fitted(mod)) %>%
  select(y_hat, mass, height)

# A tibble: 58 × 3
   y_hat  mass height
   <dbl> <dbl>  <int>
 1  74.3    77    172
 2  71.2    75    167
 3  27.1    32     96
 4  93.0   136    202
 5  60.7    49    150
 6  78.1   120    178
 7  70.0    75    165
 8  27.7    32     97
 9  81.2    84    183
10  80.5    77    182
# … with 48 more rows
…
Let’s do this in R!

Calculate the residual

mod <- lm(mass ~ height,
          data = starwars_nojabba)

starwars_nojabba %>%
  mutate(
    y_hat = fitted(mod),
    residual = mass - y_hat) %>%
  select(mass, height, y_hat, residual)

# A tibble: 58 × 4
    mass height y_hat residual
   <dbl>  <int> <dbl>    <dbl>
 1    77    172  74.3     2.67
 2    75    167  71.2     3.77
 3    32     96  27.1     4.89
 4   136    202  93.0    43.0 
 5    49    150  60.7   -11.7 
 6   120    178  78.1    41.9 
 7    75    165  70.0     5.02
 8    32     97  27.7     4.27
 9    84    183  81.2     2.83
10    77    182  80.5    -3.55
# … with 48 more rows

Calculate the residual squared

How could I add the residual squared to this data frame?

mod <- lm(mass ~ height,
          data = starwars_nojabba)

starwars_nojabba %>%
  mutate(
    y_hat = fitted(mod),
    residual = mass - y_hat) %>%
  select(mass, height, y_hat, residual)

# A tibble: 58 × 4
    mass height y_hat residual
   <dbl>  <int> <dbl>    <dbl>
 1    77    172  74.3     2.67
 2    75    167  71.2     3.77
 3    32     96  27.1     4.89
 4   136    202  93.0    43.0 
 5    49    150  60.7   -11.7 
 6   120    178  78.1    41.9 
 7    75    165  70.0     5.02
 8    32     97  27.7     4.27
 9    84    183  81.2     2.83
10    77    182  80.5    -3.55
# … with 48 more rows
Calculate the residual squared

How could I add the residual squared to this data frame?

mod <- lm(mass ~ height, 
          data = starwars_nojabba)

starwars_nojabba %>%
  mutate(
    y_hat = fitted(mod),
    residual = mass - y_hat,
    residual_2 = residual^2) %>%
  select(mass, height, y_hat, residual_2)

# A tibble: 58 × 4
    mass height y_hat residual_2
   <dbl>  <int> <dbl>      <dbl>
 1    77    172  74.3       7.11
 2    75    167  71.2      14.2 
 3    32     96  27.1      23.9 
 4   136    202  93.0    1851.  
 5    49    150  60.7     136.  
 6   120    178  78.1    1759.  
 7    75    165  70.0      25.2 
 8    32     97  27.7      18.2 
 9    84    183  81.2       8.02
10    77    182  80.5      12.6 
# … with 48 more rows
Calculate the SSE

How can I summarize this dataset to calculate the sum of the squared residuals?

mod <- lm(mass ~ height, 
          data = starwars_nojabba)

starwars_nojabba %>%
  mutate(
    y_hat = fitted(mod),
    residual = mass - y_hat,
    residual_2 = residual^2)  %>%
  select(mass, height, y_hat, residual_2)

# A tibble: 58 × 4
    mass height y_hat residual_2
   <dbl>  <int> <dbl>      <dbl>
 1    77    172  74.3       7.11
 2    75    167  71.2      14.2 
 3    32     96  27.1      23.9 
 4   136    202  93.0    1851.  
 5    49    150  60.7     136.  
 6   120    178  78.1    1759.  
 7    75    165  70.0      25.2 
 8    32     97  27.7      18.2 
 9    84    183  81.2       8.02
10    77    182  80.5      12.6 
# … with 48 more rows
…
